{
    "KPackageStructure": "Plasma/LookAndFeel",
    "KPlugin": {
        "Authors": [
            {
                "Email": "gicalucejo@gmail.com",
                "Name": "jomada"
            }
        ],
        "Category": "Global Themes (Plasma 6)",
        "ServiceTypes": [
            "Plasma/LookAndFeel"
        ],
        "EnabledByDefault": true,
        "Name": "Lenny",
        "Description": "Lenny Desktop Design",
        "Id": "Lenny",
        "Version": "2.1",
        "License": "GPL 3+",
        "Website": "https://seduccionlinux.wordpress.com",
        "Keywords": "Desktop;Workspace;Appearance;Look and Feel;Logout;Lock;Suspend;Shutdown;Hibernate;",
        "X-Plasma-APIVersion": "2"
    },
     "X-KPackage-Dependencies": [
        "kns://colorschemes.knsrc/api.kde-look.org/1331610",
        "kns://plasma-themes.knsrc/api.kde-look.org/1330605",
        "kns://aurorae.knsrc/api.kde-look.org/1331611",
        "kns://xcursor.knsrc/api.kde-look.org/1411743",
        "kns://icons.knsrc/api.kde-look.org/1256209",
        "kns://wallpaper.knsrc/api.kde-look.org/1682842"
    ]
}
